﻿S.No.,Name ,location,Attraction,Age Range,Extertion level
1,Glow warm cave ,paparoa national park,Black water rafting,Upto 16  year,Taken deep underground through a huge cave network
2,White Island ,Whakatane,Active marine volcano,Upto 18 year,Landing in the crate of an active volcano
3,Darkest skies,South canterbury,Clearest skies for stargazing,Any age,Storgazing some of the world darkest skies
4,Aurora australis,Lake tekapo,Seeing the south lights,Any age,Magical magnetic Phenomenon
5,Jet boat,Waiau river,Scenery and bag a trout,Upto 18 year,Dinner from a jet boat
6,Te papa mescum,Wellington,Gawking at a colassal squid,Any age,Rethink unresonable fear of loveable sharks
7,Steamy ground,Rotorua,See earth breathing,Any age,Witnessing the power of the earth
8,Hobbiton,Matamata,See hobbit village,Any age,Being a real life hobbit
9,Rafted waterfall,Near rotorua ,Rafting,Upto 18 year,Raft down the world highest commercially rafted waterfall
10,Kawarou bridge bungy,Near Queenstown,Bungy jump,Upto 22 year,Bungy at the home of bungy 
